[
  {
    "id": "content-manager",
    "source": {
      "development": "/content-manager/main.js",
      "production": "/content-manager/main.js",
      "staging": "/content-manager/main.js"
    }
  },
  {
    "id": "content-type-builder",
    "source": {
      "development": "/content-type-builder/main.js",
      "production": "/content-type-builder/main.js",
      "staging": "/content-type-builder/main.js"
    }
  },
  {
    "id": "users-permissions",
    "source": {
      "development": "/users-permissions/main.js",
      "production": "/users-permissions/main.js",
      "staging": "/users-permissions/main.js"
    }
  }
]
